%YAML 1.1
%TAG !u! tag:unity3d.com,2011:
--- !u!1001 &100100000
Prefab:
  m_ObjectHideFlags: 1
  serializedVersion: 2
  m_Modification:
    m_TransformParent: {fileID: 0}
    m_Modifications: []
    m_RemovedComponents: []
  m_ParentPrefab: {fileID: 0}
  m_RootGameObject: {fileID: 1080700290406170}
  m_IsPrefabParent: 1
--- !u!1 &1003127999685344
GameObject:
  m_ObjectHideFlags: 1
  m_PrefabParentObject: {fileID: 0}
  m_PrefabInternal: {fileID: 100100000}
  serializedVersion: 5
  m_Component:
  - component: {fileID: 4375802791539368}
  m_Layer: 0
  m_Name: frontToes1_R
  m_TagString: Untagged
  m_Icon: {fileID: 0}
  m_NavMeshLayer: 0
  m_StaticEditorFlags: 0
  m_IsActive: 1
--- !u!1 &1012627791886256
GameObject:
  m_ObjectHideFlags: 1
  m_PrefabParentObject: {fileID: 0}
  m_PrefabInternal: {fileID: 100100000}
  serializedVersion: 5
  m_Component:
  - component: {fileID: 4090318113552058}
  m_Layer: 0
  m_Name: Tail2_M
  m_TagString: Untagged
  m_Icon: {fileID: 0}
  m_NavMeshLayer: 0
  m_StaticEditorFlags: 0
  m_IsActive: 1
--- !u!1 &1018455690316812
GameObject:
  m_ObjectHideFlags: 1
  m_PrefabParentObject: {fileID: 0}
  m_PrefabInternal: {fileID: 100100000}
  serializedVersion: 5
  m_Component:
  - component: {fileID: 4452306393485774}
  m_Layer: 0
  m_Name: Jaw_M
  m_TagString: Untagged
  m_Icon: {fileID: 0}
  m_NavMeshLayer: 0
  m_StaticEditorFlags: 0
  m_IsActive: 1
--- !u!1 &1035940129953044
GameObject:
  m_ObjectHideFlags: 1
  m_PrefabParentObject: {fileID: 0}
  m_PrefabInternal: {fileID: 100100000}
  serializedVersion: 5
  m_Component:
  - component: {fileID: 4515793751387650}
  m_Layer: 0
  m_Name: frontToes4_R
  m_TagString: Untagged
  m_Icon: {fileID: 0}
  m_NavMeshLayer: 0
  m_StaticEditorFlags: 0
  m_IsActive: 1
--- !u!1 &1067292359278896
GameObject:
  m_ObjectHideFlags: 1
  m_PrefabParentObject: {fileID: 0}
  m_PrefabInternal: {fileID: 100100000}
  serializedVersion: 5
  m_Component:
  - component: {fileID: 4660300850881032}
  m_Layer: 0
  m_Name: Neck_M
  m_TagString: Untagged
  m_Icon: {fileID: 0}
  m_NavMeshLayer: 0
  m_StaticEditorFlags: 0
  m_IsActive: 1
--- !u!1 &1080700290406170
GameObject:
  m_ObjectHideFlags: 0
  m_PrefabParentObject: {fileID: 0}
  m_PrefabInternal: {fileID: 100100000}
  serializedVersion: 5
  m_Component:
  - component: {fileID: 4846570793918966}
  - component: {fileID: 95451313775952974}
  - component: {fileID: 143500645344935788}
  - component: {fileID: 114165787054051010}
  - component: {fileID: 195101049180616944}
  m_Layer: 0
  m_Name: Stegosaurus_Red
  m_TagString: Untagged
  m_Icon: {fileID: 0}
  m_NavMeshLayer: 0
  m_StaticEditorFlags: 0
  m_IsActive: 1
--- !u!1 &1130698849319640
GameObject:
  m_ObjectHideFlags: 1
  m_PrefabParentObject: {fileID: 0}
  m_PrefabInternal: {fileID: 100100000}
  serializedVersion: 5
  m_Component:
  - component: {fileID: 4045619110252902}
  m_Layer: 0
  m_Name: backKnee_R
  m_TagString: Untagged
  m_Icon: {fileID: 0}
  m_NavMeshLayer: 0
  m_StaticEditorFlags: 0
  m_IsActive: 1
--- !u!1 &1143437439931064
GameObject:
  m_ObjectHideFlags: 1
  m_PrefabParentObject: {fileID: 0}
  m_PrefabInternal: {fileID: 100100000}
  serializedVersion: 5
  m_Component:
  - component: {fileID: 4115052950132552}
  m_Layer: 0
  m_Name: JawEnd_M
  m_TagString: Untagged
  m_Icon: {fileID: 0}
  m_NavMeshLayer: 0
  m_StaticEditorFlags: 0
  m_IsActive: 1
--- !u!1 &1158589434931352
GameObject:
  m_ObjectHideFlags: 1
  m_PrefabParentObject: {fileID: 0}
  m_PrefabInternal: {fileID: 100100000}
  serializedVersion: 5
  m_Component:
  - component: {fileID: 4470289819894758}
  m_Layer: 0
  m_Name: frontToes1_L
  m_TagString: Untagged
  m_Icon: {fileID: 0}
  m_NavMeshLayer: 0
  m_StaticEditorFlags: 0
  m_IsActive: 1
--- !u!1 &1216543827252660
GameObject:
  m_ObjectHideFlags: 1
  m_PrefabParentObject: {fileID: 0}
  m_PrefabInternal: {fileID: 100100000}
  serializedVersion: 5
  m_Component:
  - component: {fileID: 4680351013481056}
  m_Layer: 0
  m_Name: backHip_L
  m_TagString: Untagged
  m_Icon: {fileID: 0}
  m_NavMeshLayer: 0
  m_StaticEditorFlags: 0
  m_IsActive: 1
--- !u!1 &1255593635883846
GameObject:
  m_ObjectHideFlags: 1
  m_PrefabParentObject: {fileID: 0}
  m_PrefabInternal: {fileID: 100100000}
  serializedVersion: 5
  m_Component:
  - component: {fileID: 4948093811902924}
  m_Layer: 0
  m_Name: Spine1Part1_M
  m_TagString: Untagged
  m_Icon: {fileID: 0}
  m_NavMeshLayer: 0
  m_StaticEditorFlags: 0
  m_IsActive: 1
--- !u!1 &1271543476383678
GameObject:
  m_ObjectHideFlags: 1
  m_PrefabParentObject: {fileID: 0}
  m_PrefabInternal: {fileID: 100100000}
  serializedVersion: 5
  m_Component:
  - component: {fileID: 4841607868113860}
  m_Layer: 0
  m_Name: Head_M
  m_TagString: Untagged
  m_Icon: {fileID: 0}
  m_NavMeshLayer: 0
  m_StaticEditorFlags: 0
  m_IsActive: 1
--- !u!1 &1278538066244222
GameObject:
  m_ObjectHideFlags: 1
  m_PrefabParentObject: {fileID: 0}
  m_PrefabInternal: {fileID: 100100000}
  serializedVersion: 5
  m_Component:
  - component: {fileID: 4582419426468638}
  m_Layer: 0
  m_Name: HeadEnd_M
  m_TagString: Untagged
  m_Icon: {fileID: 0}
  m_NavMeshLayer: 0
  m_StaticEditorFlags: 0
  m_IsActive: 1
--- !u!1 &1279825281151876
GameObject:
  m_ObjectHideFlags: 1
  m_PrefabParentObject: {fileID: 0}
  m_PrefabInternal: {fileID: 100100000}
  serializedVersion: 5
  m_Component:
  - component: {fileID: 4416673913534446}
  m_Layer: 0
  m_Name: backAnkle_R
  m_TagString: Untagged
  m_Icon: {fileID: 0}
  m_NavMeshLayer: 0
  m_StaticEditorFlags: 0
  m_IsActive: 1
--- !u!1 &1307363394754700
GameObject:
  m_ObjectHideFlags: 1
  m_PrefabParentObject: {fileID: 0}
  m_PrefabInternal: {fileID: 100100000}
  serializedVersion: 5
  m_Component:
  - component: {fileID: 4293608887252136}
  m_Layer: 0
  m_Name: frontToes2_R
  m_TagString: Untagged
  m_Icon: {fileID: 0}
  m_NavMeshLayer: 0
  m_StaticEditorFlags: 0
  m_IsActive: 1
--- !u!1 &1312120786866442
GameObject:
  m_ObjectHideFlags: 1
  m_PrefabParentObject: {fileID: 0}
  m_PrefabInternal: {fileID: 100100000}
  serializedVersion: 5
  m_Component:
  - component: {fileID: 4245162544392416}
  m_Layer: 0
  m_Name: Tail6_M
  m_TagString: Untagged
  m_Icon: {fileID: 0}
  m_NavMeshLayer: 0
  m_StaticEditorFlags: 0
  m_IsActive: 1
--- !u!1 &1347068269896928
GameObject:
  m_ObjectHideFlags: 1
  m_PrefabParentObject: {fileID: 0}
  m_PrefabInternal: {fileID: 100100000}
  serializedVersion: 5
  m_Component:
  - component: {fileID: 4228376018256386}
  m_Layer: 0
  m_Name: Tail1_M
  m_TagString: Untagged
  m_Icon: {fileID: 0}
  m_NavMeshLayer: 0
  m_StaticEditorFlags: 0
  m_IsActive: 1
--- !u!1 &1356383009126386
GameObject:
  m_ObjectHideFlags: 1
  m_PrefabParentObject: {fileID: 0}
  m_PrefabInternal: {fileID: 100100000}
  serializedVersion: 5
  m_Component:
  - component: {fileID: 4271924724650600}
  m_Layer: 0
  m_Name: Neck4_M
  m_TagString: Untagged
  m_Icon: {fileID: 0}
  m_NavMeshLayer: 0
  m_StaticEditorFlags: 0
  m_IsActive: 1
--- !u!1 &1383856184412050
GameObject:
  m_ObjectHideFlags: 1
  m_PrefabParentObject: {fileID: 0}
  m_PrefabInternal: {fileID: 100100000}
  serializedVersion: 5
  m_Component:
  - component: {fileID: 4740072202069354}
  m_Layer: 0
  m_Name: frontHip_R
  m_TagString: Untagged
  m_Icon: {fileID: 0}
  m_NavMeshLayer: 0
  m_StaticEditorFlags: 0
  m_IsActive: 1
--- !u!1 &1426451340014104
GameObject:
  m_ObjectHideFlags: 1
  m_PrefabParentObject: {fileID: 0}
  m_PrefabInternal: {fileID: 100100000}
  serializedVersion: 5
  m_Component:
  - component: {fileID: 4863283635151804}
  m_Layer: 0
  m_Name: Neck2_M
  m_TagString: Untagged
  m_Icon: {fileID: 0}
  m_NavMeshLayer: 0
  m_StaticEditorFlags: 0
  m_IsActive: 1
--- !u!1 &1449101928703012
GameObject:
  m_ObjectHideFlags: 1
  m_PrefabParentObject: {fileID: 0}
  m_PrefabInternal: {fileID: 100100000}
  serializedVersion: 5
  m_Component:
  - component: {fileID: 4885998518505366}
  m_Layer: 0
  m_Name: Tail4_M
  m_TagString: Untagged
  m_Icon: {fileID: 0}
  m_NavMeshLayer: 0
  m_StaticEditorFlags: 0
  m_IsActive: 1
--- !u!1 &1452490595996032
GameObject:
  m_ObjectHideFlags: 1
  m_PrefabParentObject: {fileID: 0}
  m_PrefabInternal: {fileID: 100100000}
  serializedVersion: 5
  m_Component:
  - component: {fileID: 4859616549813326}
  m_Layer: 0
  m_Name: frontAnkle_R
  m_TagString: Untagged
  m_Icon: {fileID: 0}
  m_NavMeshLayer: 0
  m_StaticEditorFlags: 0
  m_IsActive: 1
--- !u!1 &1470953313077334
GameObject:
  m_ObjectHideFlags: 1
  m_PrefabParentObject: {fileID: 0}
  m_PrefabInternal: {fileID: 100100000}
  serializedVersion: 5
  m_Component:
  - component: {fileID: 4588172042591486}
  m_Layer: 0
  m_Name: backToes2_L
  m_TagString: Untagged
  m_Icon: {fileID: 0}
  m_NavMeshLayer: 0
  m_StaticEditorFlags: 0
  m_IsActive: 1
--- !u!1 &1494862050038156
GameObject:
  m_ObjectHideFlags: 1
  m_PrefabParentObject: {fileID: 0}
  m_PrefabInternal: {fileID: 100100000}
  serializedVersion: 5
  m_Component:
  - component: {fileID: 4686387987661480}
  m_Layer: 0
  m_Name: Tail0_M
  m_TagString: Untagged
  m_Icon: {fileID: 0}
  m_NavMeshLayer: 0
  m_StaticEditorFlags: 0
  m_IsActive: 1
--- !u!1 &1510723328280528
GameObject:
  m_ObjectHideFlags: 1
  m_PrefabParentObject: {fileID: 0}
  m_PrefabInternal: {fileID: 100100000}
  serializedVersion: 5
  m_Component:
  - component: {fileID: 4611986223446172}
  m_Layer: 0
  m_Name: backToes4_L
  m_TagString: Untagged
  m_Icon: {fileID: 0}
  m_NavMeshLayer: 0
  m_StaticEditorFlags: 0
  m_IsActive: 1
--- !u!1 &1512951442179992
GameObject:
  m_ObjectHideFlags: 1
  m_PrefabParentObject: {fileID: 0}
  m_PrefabInternal: {fileID: 100100000}
  serializedVersion: 5
  m_Component:
  - component: {fileID: 4480264386970902}
  m_Layer: 0
  m_Name: Tail5_M
  m_TagString: Untagged
  m_Icon: {fileID: 0}
  m_NavMeshLayer: 0
  m_StaticEditorFlags: 0
  m_IsActive: 1
--- !u!1 &1519906335042080
GameObject:
  m_ObjectHideFlags: 1
  m_PrefabParentObject: {fileID: 0}
  m_PrefabInternal: {fileID: 100100000}
  serializedVersion: 5
  m_Component:
  - component: {fileID: 4066247197231690}
  m_Layer: 0
  m_Name: RootPart2_M
  m_TagString: Untagged
  m_Icon: {fileID: 0}
  m_NavMeshLayer: 0
  m_StaticEditorFlags: 0
  m_IsActive: 1
--- !u!1 &1522541489646380
GameObject:
  m_ObjectHideFlags: 1
  m_PrefabParentObject: {fileID: 0}
  m_PrefabInternal: {fileID: 100100000}
  serializedVersion: 5
  m_Component:
  - component: {fileID: 4630499370873766}
  m_Layer: 0
  m_Name: Tongue_End_M
  m_TagString: Untagged
  m_Icon: {fileID: 0}
  m_NavMeshLayer: 0
  m_StaticEditorFlags: 0
  m_IsActive: 1
--- !u!1 &1561212300946378
GameObject:
  m_ObjectHideFlags: 1
  m_PrefabParentObject: {fileID: 0}
  m_PrefabInternal: {fileID: 100100000}
  serializedVersion: 5
  m_Component:
  - component: {fileID: 4562254685828518}
  m_Layer: 0
  m_Name: backToes2_R
  m_TagString: Untagged
  m_Icon: {fileID: 0}
  m_NavMeshLayer: 0
  m_StaticEditorFlags: 0
  m_IsActive: 1
--- !u!1 &1565271118697778
GameObject:
  m_ObjectHideFlags: 1
  m_PrefabParentObject: {fileID: 0}
  m_PrefabInternal: {fileID: 100100000}
  serializedVersion: 5
  m_Component:
  - component: {fileID: 4958581673639758}
  m_Layer: 0
  m_Name: backAnkle_L
  m_TagString: Untagged
  m_Icon: {fileID: 0}
  m_NavMeshLayer: 0
  m_StaticEditorFlags: 0
  m_IsActive: 1
--- !u!1 &1601326765684952
GameObject:
  m_ObjectHideFlags: 1
  m_PrefabParentObject: {fileID: 0}
  m_PrefabInternal: {fileID: 100100000}
  serializedVersion: 5
  m_Component:
  - component: {fileID: 4393163759147602}
  m_Layer: 0
  m_Name: frontToes3_R
  m_TagString: Untagged
  m_Icon: {fileID: 0}
  m_NavMeshLayer: 0
  m_StaticEditorFlags: 0
  m_IsActive: 1
--- !u!1 &1614253724255216
GameObject:
  m_ObjectHideFlags: 0
  m_PrefabParentObject: {fileID: 0}
  m_PrefabInternal: {fileID: 100100000}
  serializedVersion: 5
  m_Component:
  - component: {fileID: 4054597831851606}
  m_Layer: 0
  m_Name: Group
  m_TagString: Untagged
  m_Icon: {fileID: 0}
  m_NavMeshLayer: 0
  m_StaticEditorFlags: 0
  m_IsActive: 1
--- !u!1 &1641925631818518
GameObject:
  m_ObjectHideFlags: 1
  m_PrefabParentObject: {fileID: 0}
  m_PrefabInternal: {fileID: 100100000}
  serializedVersion: 5
  m_Component:
  - component: {fileID: 4400710350842830}
  m_Layer: 0
  m_Name: backKnee_L
  m_TagString: Untagged
  m_Icon: {fileID: 0}
  m_NavMeshLayer: 0
  m_StaticEditorFlags: 0
  m_IsActive: 1
--- !u!1 &1650435071997342
GameObject:
  m_ObjectHideFlags: 1
  m_PrefabParentObject: {fileID: 0}
  m_PrefabInternal: {fileID: 100100000}
  serializedVersion: 5
  m_Component:
  - component: {fileID: 4218800982955572}
  m_Layer: 0
  m_Name: Tail3_M
  m_TagString: Untagged
  m_Icon: {fileID: 0}
  m_NavMeshLayer: 0
  m_StaticEditorFlags: 0
  m_IsActive: 1
--- !u!1 &1656167377070512
GameObject:
  m_ObjectHideFlags: 1
  m_PrefabParentObject: {fileID: 0}
  m_PrefabInternal: {fileID: 100100000}
  serializedVersion: 5
  m_Component:
  - component: {fileID: 4729868811019758}
  m_Layer: 0
  m_Name: frontToes4_L
  m_TagString: Untagged
  m_Icon: {fileID: 0}
  m_NavMeshLayer: 0
  m_StaticEditorFlags: 0
  m_IsActive: 1
--- !u!1 &1671280689378920
GameObject:
  m_ObjectHideFlags: 1
  m_PrefabParentObject: {fileID: 0}
  m_PrefabInternal: {fileID: 100100000}
  serializedVersion: 5
  m_Component:
  - component: {fileID: 4831988337044490}
  m_Layer: 0
  m_Name: frontAnkle_L
  m_TagString: Untagged
  m_Icon: {fileID: 0}
  m_NavMeshLayer: 0
  m_StaticEditorFlags: 0
  m_IsActive: 1
--- !u!1 &1685137557464142
GameObject:
  m_ObjectHideFlags: 1
  m_PrefabParentObject: {fileID: 0}
  m_PrefabInternal: {fileID: 100100000}
  serializedVersion: 5
  m_Component:
  - component: {fileID: 4854180199584064}
  m_Layer: 0
  m_Name: Chest_M
  m_TagString: Untagged
  m_Icon: {fileID: 0}
  m_NavMeshLayer: 0
  m_StaticEditorFlags: 0
  m_IsActive: 1
--- !u!1 &1702380175198508
GameObject:
  m_ObjectHideFlags: 1
  m_PrefabParentObject: {fileID: 0}
  m_PrefabInternal: {fileID: 100100000}
  serializedVersion: 5
  m_Component:
  - component: {fileID: 4211218934460032}
  m_Layer: 0
  m_Name: Spine1Part2_M
  m_TagString: Untagged
  m_Icon: {fileID: 0}
  m_NavMeshLayer: 0
  m_StaticEditorFlags: 0
  m_IsActive: 1
--- !u!1 &1703107323833714
GameObject:
  m_ObjectHideFlags: 1
  m_PrefabParentObject: {fileID: 0}
  m_PrefabInternal: {fileID: 100100000}
  serializedVersion: 5
  m_Component:
  - component: {fileID: 4116383649212086}
  m_Layer: 0
  m_Name: Root_M
  m_TagString: Untagged
  m_Icon: {fileID: 0}
  m_NavMeshLayer: 0
  m_StaticEditorFlags: 0
  m_IsActive: 1
--- !u!1 &1746044418575842
GameObject:
  m_ObjectHideFlags: 1
  m_PrefabParentObject: {fileID: 0}
  m_PrefabInternal: {fileID: 100100000}
  serializedVersion: 5
  m_Component:
  - component: {fileID: 4608930636340188}
  m_Layer: 0
  m_Name: backToes3_R
  m_TagString: Untagged
  m_Icon: {fileID: 0}
  m_NavMeshLayer: 0
  m_StaticEditorFlags: 0
  m_IsActive: 1
--- !u!1 &1757451170657312
GameObject:
  m_ObjectHideFlags: 1
  m_PrefabParentObject: {fileID: 0}
  m_PrefabInternal: {fileID: 100100000}
  serializedVersion: 5
  m_Component:
  - component: {fileID: 4390829125383942}
  m_Layer: 0
  m_Name: frontRump_R
  m_TagString: Untagged
  m_Icon: {fileID: 0}
  m_NavMeshLayer: 0
  m_StaticEditorFlags: 0
  m_IsActive: 1
--- !u!1 &1776912906434764
GameObject:
  m_ObjectHideFlags: 1
  m_PrefabParentObject: {fileID: 0}
  m_PrefabInternal: {fileID: 100100000}
  serializedVersion: 5
  m_Component:
  - component: {fileID: 4788157964018282}
  m_Layer: 0
  m_Name: frontHip_L
  m_TagString: Untagged
  m_Icon: {fileID: 0}
  m_NavMeshLayer: 0
  m_StaticEditorFlags: 0
  m_IsActive: 1
--- !u!1 &1799571107875480
GameObject:
  m_ObjectHideFlags: 1
  m_PrefabParentObject: {fileID: 0}
  m_PrefabInternal: {fileID: 100100000}
  serializedVersion: 5
  m_Component:
  - component: {fileID: 4705824208653472}
  m_Layer: 0
  m_Name: Tongue_M
  m_TagString: Untagged
  m_Icon: {fileID: 0}
  m_NavMeshLayer: 0
  m_StaticEditorFlags: 0
  m_IsActive: 1
--- !u!1 &1806133764042466
GameObject:
  m_ObjectHideFlags: 1
  m_PrefabParentObject: {fileID: 0}
  m_PrefabInternal: {fileID: 100100000}
  serializedVersion: 5
  m_Component:
  - component: {fileID: 4690042748665676}
  m_Layer: 0
  m_Name: Spine1_M
  m_TagString: Untagged
  m_Icon: {fileID: 0}
  m_NavMeshLayer: 0
  m_StaticEditorFlags: 0
  m_IsActive: 1
--- !u!1 &1822794638982506
GameObject:
  m_ObjectHideFlags: 1
  m_PrefabParentObject: {fileID: 0}
  m_PrefabInternal: {fileID: 100100000}
  serializedVersion: 5
  m_Component:
  - component: {fileID: 4058099781835200}
  m_Layer: 0
  m_Name: frontToes3_L
  m_TagString: Untagged
  m_Icon: {fileID: 0}
  m_NavMeshLayer: 0
  m_StaticEditorFlags: 0
  m_IsActive: 1
--- !u!1 &1825711696061044
GameObject:
  m_ObjectHideFlags: 1
  m_PrefabParentObject: {fileID: 0}
  m_PrefabInternal: {fileID: 100100000}
  serializedVersion: 5
  m_Component:
  - component: {fileID: 4259453645047148}
  m_Layer: 0
  m_Name: frontKnee_L
  m_TagString: Untagged
  m_Icon: {fileID: 0}
  m_NavMeshLayer: 0
  m_StaticEditorFlags: 0
  m_IsActive: 1
--- !u!1 &1836091535590338
GameObject:
  m_ObjectHideFlags: 1
  m_PrefabParentObject: {fileID: 0}
  m_PrefabInternal: {fileID: 100100000}
  serializedVersion: 5
  m_Component:
  - component: {fileID: 4703057861689178}
  m_Layer: 0
  m_Name: backToes4_R
  m_TagString: Untagged
  m_Icon: {fileID: 0}
  m_NavMeshLayer: 0
  m_StaticEditorFlags: 0
  m_IsActive: 1
--- !u!1 &1850768120522784
GameObject:
  m_ObjectHideFlags: 1
  m_PrefabParentObject: {fileID: 0}
  m_PrefabInternal: {fileID: 100100000}
  serializedVersion: 5
  m_Component:
  - component: {fileID: 4071297671360528}
  m_Layer: 0
  m_Name: Neck1_M
  m_TagString: Untagged
  m_Icon: {fileID: 0}
  m_NavMeshLayer: 0
  m_StaticEditorFlags: 0
  m_IsActive: 1
--- !u!1 &1853390838931692
GameObject:
  m_ObjectHideFlags: 1
  m_PrefabParentObject: {fileID: 0}
  m_PrefabInternal: {fileID: 100100000}
  serializedVersion: 5
  m_Component:
  - component: {fileID: 4545493106163764}
  m_Layer: 0
  m_Name: frontRump_L
  m_TagString: Untagged
  m_Icon: {fileID: 0}
  m_NavMeshLayer: 0
  m_StaticEditorFlags: 0
  m_IsActive: 1
--- !u!1 &1864617633476816
GameObject:
  m_ObjectHideFlags: 1
  m_PrefabParentObject: {fileID: 0}
  m_PrefabInternal: {fileID: 100100000}
  serializedVersion: 5
  m_Component:
  - component: {fileID: 4012263342462860}
  m_Layer: 0
  m_Name: RootPart1_M
  m_TagString: Untagged
  m_Icon: {fileID: 0}
  m_NavMeshLayer: 0
  m_StaticEditorFlags: 0
  m_IsActive: 1
--- !u!1 &1871257261208072
GameObject:
  m_ObjectHideFlags: 1
  m_PrefabParentObject: {fileID: 0}
  m_PrefabInternal: {fileID: 100100000}
  serializedVersion: 5
  m_Component:
  - component: {fileID: 4096537806680926}
  m_Layer: 0
  m_Name: backToes1_R
  m_TagString: Untagged
  m_Icon: {fileID: 0}
  m_NavMeshLayer: 0
  m_StaticEditorFlags: 0
  m_IsActive: 1
--- !u!1 &1887797132121458
GameObject:
  m_ObjectHideFlags: 1
  m_PrefabParentObject: {fileID: 0}
  m_PrefabInternal: {fileID: 100100000}
  serializedVersion: 5
  m_Component:
  - component: {fileID: 4692152026195618}
  m_Layer: 0
  m_Name: frontKnee_R
  m_TagString: Untagged
  m_Icon: {fileID: 0}
  m_NavMeshLayer: 0
  m_StaticEditorFlags: 0
  m_IsActive: 1
--- !u!1 &1908935312108500
GameObject:
  m_ObjectHideFlags: 1
  m_PrefabParentObject: {fileID: 0}
  m_PrefabInternal: {fileID: 100100000}
  serializedVersion: 5
  m_Component:
  - component: {fileID: 4012868427444568}
  m_Layer: 0
  m_Name: backToes1_L
  m_TagString: Untagged
  m_Icon: {fileID: 0}
  m_NavMeshLayer: 0
  m_StaticEditorFlags: 0
  m_IsActive: 1
--- !u!1 &1916086154799764
GameObject:
  m_ObjectHideFlags: 1
  m_PrefabParentObject: {fileID: 0}
  m_PrefabInternal: {fileID: 100100000}
  serializedVersion: 5
  m_Component:
  - component: {fileID: 4755600193794302}
  m_Layer: 0
  m_Name: DeformationSystem
  m_TagString: Untagged
  m_Icon: {fileID: 0}
  m_NavMeshLayer: 0
  m_StaticEditorFlags: 0
  m_IsActive: 1
--- !u!1 &1932085954664890
GameObject:
  m_ObjectHideFlags: 1
  m_PrefabParentObject: {fileID: 0}
  m_PrefabInternal: {fileID: 100100000}
  serializedVersion: 5
  m_Component:
  - component: {fileID: 4859328826221274}
  m_Layer: 0
  m_Name: Main
  m_TagString: Untagged
  m_Icon: {fileID: 0}
  m_NavMeshLayer: 0
  m_StaticEditorFlags: 0
  m_IsActive: 1
--- !u!1 &1937626050371192
GameObject:
  m_ObjectHideFlags: 1
  m_PrefabParentObject: {fileID: 0}
  m_PrefabInternal: {fileID: 100100000}
  serializedVersion: 5
  m_Component:
  - component: {fileID: 4748140518798078}
  m_Layer: 0
  m_Name: backHip_R
  m_TagString: Untagged
  m_Icon: {fileID: 0}
  m_NavMeshLayer: 0
  m_StaticEditorFlags: 0
  m_IsActive: 1
--- !u!1 &1944684867171222
GameObject:
  m_ObjectHideFlags: 1
  m_PrefabParentObject: {fileID: 0}
  m_PrefabInternal: {fileID: 100100000}
  serializedVersion: 5
  m_Component:
  - component: {fileID: 4763778896797860}
  m_Layer: 0
  m_Name: Neck3_M
  m_TagString: Untagged
  m_Icon: {fileID: 0}
  m_NavMeshLayer: 0
  m_StaticEditorFlags: 0
  m_IsActive: 1
--- !u!1 &1954648809360660
GameObject:
  m_ObjectHideFlags: 0
  m_PrefabParentObject: {fileID: 0}
  m_PrefabInternal: {fileID: 100100000}
  serializedVersion: 5
  m_Component:
  - component: {fileID: 4563088479758934}
  - component: {fileID: 137321621951196274}
  m_Layer: 0
  m_Name: Stegosaurus
  m_TagString: Untagged
  m_Icon: {fileID: 0}
  m_NavMeshLayer: 0
  m_StaticEditorFlags: 0
  m_IsActive: 1
--- !u!1 &1962345614467826
GameObject:
  m_ObjectHideFlags: 1
  m_PrefabParentObject: {fileID: 0}
  m_PrefabInternal: {fileID: 100100000}
  serializedVersion: 5
  m_Component:
  - component: {fileID: 4600347211620942}
  m_Layer: 0
  m_Name: backToes3_L
  m_TagString: Untagged
  m_Icon: {fileID: 0}
  m_NavMeshLayer: 0
  m_StaticEditorFlags: 0
  m_IsActive: 1
--- !u!1 &1966766478815472
GameObject:
  m_ObjectHideFlags: 1
  m_PrefabParentObject: {fileID: 0}
  m_PrefabInternal: {fileID: 100100000}
  serializedVersion: 5
  m_Component:
  - component: {fileID: 4212661346435938}
  m_Layer: 0
  m_Name: frontToes2_L
  m_TagString: Untagged
  m_Icon: {fileID: 0}
  m_NavMeshLayer: 0
  m_StaticEditorFlags: 0
  m_IsActive: 1
--- !u!4 &4012263342462860
Transform:
  m_ObjectHideFlags: 1
  m_PrefabParentObject: {fileID: 0}
  m_PrefabInternal: {fileID: 100100000}
  m_GameObject: {fileID: 1864617633476816}
  m_LocalRotation: {x: 0, y: -0, z: -0, w: 1}
  m_LocalPosition: {x: -0.41828188, y: 3.9790393e-15, z: 2.338471e-16}
  m_LocalScale: {x: 1, y: 1, z: 1}
  m_Children:
  - {fileID: 4066247197231690}
  m_Father: {fileID: 4116383649212086}
  m_RootOrder: 2
  m_LocalEulerAnglesHint: {x: 0, y: 0, z: -1.1742723}
--- !u!4 &4012868427444568
Transform:
  m_ObjectHideFlags: 1
  m_PrefabParentObject: {fileID: 0}
  m_PrefabInternal: {fileID: 100100000}
  m_GameObject: {fileID: 1908935312108500}
  m_LocalRotation: {x: -0.6527464, y: 0.26509014, z: -0.16783844, w: 0.68955034}
  m_LocalPosition: {x: 0.100516625, y: 2.131628e-15, z: -4.973799e-15}
  m_LocalScale: {x: 1, y: 1, z: 1}
  m_Children:
  - {fileID: 4588172042591486}
  m_Father: {fileID: 4958581673639758}
  m_RootOrder: 0
  m_LocalEulerAnglesHint: {x: -54.215157, y: 89.28486, z: -80.996925}
--- !u!4 &4045619110252902
Transform:
  m_ObjectHideFlags: 1
  m_PrefabParentObject: {fileID: 0}
  m_PrefabInternal: {fileID: 100100000}
  m_GameObject: {fileID: 1130698849319640}
  m_LocalRotation: {x: 0, y: 0, z: 0.31043234, w: 0.9505955}
  m_LocalPosition: {x: -1.0413578, y: 1.4210854e-16, z: 1.847411e-15}
  m_LocalScale: {x: 1, y: 1, z: 1}
  m_Children:
  - {fileID: 4416673913534446}
  m_Father: {fileID: 4748140518798078}
  m_RootOrder: 0
  m_LocalEulerAnglesHint: {x: 0, y: 0, z: 58.011517}
--- !u!4 &4054597831851606
Transform:
  m_ObjectHideFlags: 1
  m_PrefabParentObject: {fileID: 0}
  m_PrefabInternal: {fileID: 100100000}
  m_GameObject: {fileID: 1614253724255216}
  m_LocalRotation: {x: 0, y: -0, z: -0, w: 1}
  m_LocalPosition: {x: -0, y: 0, z: 0}
  m_LocalScale: {x: 1, y: 1, z: 1}
  m_Children:
  - {fileID: 4859328826221274}
  m_Father: {fileID: 4846570793918966}
  m_RootOrder: 0
  m_LocalEulerAnglesHint: {x: 0, y: 0, z: 0}
--- !u!4 &4058099781835200
Transform:
  m_ObjectHideFlags: 1
  m_PrefabParentObject: {fileID: 0}
  m_PrefabInternal: {fileID: 100100000}
  m_GameObject: {fileID: 1822794638982506}
  m_LocalRotation: {x: -0.000000027442255, y: -0.00000001476116, z: -0.10563439, w: 0.99440503}
  m_LocalPosition: {x: 0.08993089, y: 0, z: 1.04591886e-13}
  m_LocalScale: {x: 1, y: 1, z: 1}
  m_Children:
  - {fileID: 4729868811019758}
  m_Father: {fileID: 4212661346435938}
  m_RootOrder: 0
  m_LocalEulerAnglesHint: {x: -0.0000053501935, y: 0.0000011249441, z: 10.099124}
--- !u!4 &4066247197231690
Transform:
  m_ObjectHideFlags: 1
  m_PrefabParentObject: {fileID: 0}
  m_PrefabInternal: {fileID: 100100000}
  m_GameObject: {fileID: 1519906335042080}
  m_LocalRotation: {x: 0, y: -0, z: -0, w: 1}
  m_LocalPosition: {x: -0.41828188, y: -4.5474734e-15, z: -1.1004298e-14}
  m_LocalScale: {x: 1, y: 1, z: 1}
  m_Children:
  - {fileID: 4690042748665676}
  m_Father: {fileID: 4012263342462860}
  m_RootOrder: 0
  m_LocalEulerAnglesHint: {x: 0, y: 0, z: 0.62431884}
--- !u!4 &4071297671360528
Transform:
  m_ObjectHideFlags: 1
  m_PrefabParentObject: {fileID: 0}
  m_PrefabInternal: {fileID: 100100000}
  m_GameObject: {fileID: 1850768120522784}
  m_LocalRotation: {x: 0, y: 0, z: 0.36729938, w: 0.93010277}
  m_LocalPosition: {x: -0.3433812, y: -8.526512e-15, z: -7.323495e-14}
  m_LocalScale: {x: 1, y: 1, z: 1}
  m_Children:
  - {fileID: 4863283635151804}
  m_Father: {fileID: 4660300850881032}
  m_RootOrder: 0
  m_LocalEulerAnglesHint: {x: 0, y: 0, z: 43.09832}
--- !u!4 &4090318113552058
Transform:
  m_ObjectHideFlags: 1
  m_PrefabParentObject: {fileID: 0}
  m_PrefabInternal: {fileID: 100100000}
  m_GameObject: {fileID: 1012627791886256}
  m_LocalRotation: {x: 0, y: 0, z: 0.017280031, w: 0.9998507}
  m_LocalPosition: {x: -0.49971607, y: 2.2737367e-15, z: -1.4233179e-14}
  m_LocalScale: {x: 1, y: 1, z: 1}
  m_Children:
  - {fileID: 4218800982955572}
  m_Father: {fileID: 4228376018256386}
  m_RootOrder: 0
  m_LocalEulerAnglesHint: {x: 0, y: 0, z: 1.9802442}
--- !u!4 &4096537806680926
Transform:
  m_ObjectHideFlags: 1
  m_PrefabParentObject: {fileID: 0}
  m_PrefabInternal: {fileID: 100100000}
  m_GameObject: {fileID: 1871257261208072}
  m_LocalRotation: {x: -0.6527464, y: 0.26509014, z: -0.16783844, w: 0.68955034}
  m_LocalPosition: {x: -0.100516625, y: 2.5579537e-15, z: 1.762146e-14}
  m_LocalScale: {x: 1, y: 1, z: 1}
  m_Children:
  - {fileID: 4562254685828518}
  m_Father: {fileID: 4416673913534446}
  m_RootOrder: 0
  m_LocalEulerAnglesHint: {x: -54.215057, y: 89.28429, z: -80.99693}
--- !u!4 &4115052950132552
Transform:
  m_ObjectHideFlags: 1
  m_PrefabParentObject: {fileID: 0}
  m_PrefabInternal: {fileID: 100100000}
  m_GameObject: {fileID: 1143437439931064}
  m_LocalRotation: {x: 0, y: -0, z: -0, w: 1}
  m_LocalPosition: {x: -0.4842174, y: 3.126388e-15, z: -1.82088e-13}
  m_LocalScale: {x: 1, y: 1, z: 1}
  m_Children: []
  m_Father: {fileID: 4452306393485774}
  m_RootOrder: 0
  m_LocalEulerAnglesHint: {x: 0, y: 0, z: 0}
--- !u!4 &4116383649212086
Transform:
  m_ObjectHideFlags: 1
  m_PrefabParentObject: {fileID: 0}
  m_PrefabInternal: {fileID: 100100000}
  m_GameObject: {fileID: 1703107323833714}
  m_LocalRotation: {x: -0.7071036, y: -0.002113958, z: 0.7071036, w: 0.002113958}
  m_LocalPosition: {x: -1.8301625e-30, y: 2.7717545, z: -1.6849155}
  m_LocalScale: {x: 1, y: 1, z: 1}
  m_Children:
  - {fileID: 4680351013481056}
  - {fileID: 4748140518798078}
  - {fileID: 4012263342462860}
  - {fileID: 4686387987661480}
  m_Father: {fileID: 4755600193794302}
  m_RootOrder: 0
  m_LocalEulerAnglesHint: {x: 0, y: -90, z: 173.59114}
--- !u!4 &4211218934460032
Transform:
  m_ObjectHideFlags: 1
  m_PrefabParentObject: {fileID: 0}
  m_PrefabInternal: {fileID: 100100000}
  m_GameObject: {fileID: 1702380175198508}
  m_LocalRotation: {x: 0, y: -0, z: -0, w: 1}
  m_LocalPosition: {x: -0.4519173, y: 2.842171e-16, z: -5.8477244e-14}
  m_LocalScale: {x: 1, y: 1, z: 1}
  m_Children:
  - {fileID: 4854180199584064}
  m_Father: {fileID: 4948093811902924}
  m_RootOrder: 0
  m_LocalEulerAnglesHint: {x: 0, y: 0, z: 0.21505952}
--- !u!4 &4212661346435938
Transform:
  m_ObjectHideFlags: 1
  m_PrefabParentObject: {fileID: 0}
  m_PrefabInternal: {fileID: 100100000}
  m_GameObject: {fileID: 1966766478815472}
  m_LocalRotation: {x: 0.9851492, y: 0.17170061, z: -0.000000020448054, w: 0.0000000035637975}
  m_LocalPosition: {x: 0.09931245, y: 0, z: 2.8421708e-15}
  m_LocalScale: {x: 1, y: 1, z: 1}
  m_Children:
  - {fileID: 4058099781835200}
  m_Father: {fileID: 4470289819894758}
  m_RootOrder: 0
  m_LocalEulerAnglesHint: {x: -2.842171e-13, y: 179.99992, z: 160.22656}
--- !u!4 &4218800982955572
Transform:
  m_ObjectHideFlags: 1
  m_PrefabParentObject: {fileID: 0}
  m_PrefabInternal: {fileID: 100100000}
  m_GameObject: {fileID: 1650435071997342}
  m_LocalRotation: {x: 0, y: 0, z: 0.073874906, w: 0.99726754}
  m_LocalPosition: {x: -0.47331038, y: -1.7053025e-15, z: -9.583491e-15}
  m_LocalScale: {x: 1, y: 1, z: 1}
  m_Children:
  - {fileID: 4885998518505366}
  m_Father: {fileID: 4090318113552058}
  m_RootOrder: 0
  m_LocalEulerAnglesHint: {x: 0, y: 0, z: 8.473159}
--- !u!4 &4228376018256386
Transform:
  m_ObjectHideFlags: 1
  m_PrefabParentObject: {fileID: 0}
  m_PrefabInternal: {fileID: 100100000}
  m_GameObject: {fileID: 1347068269896928}
  m_LocalRotation: {x: 0, y: 0, z: -0.027676603, w: 0.999617}
  m_LocalPosition: {x: -0.6433728, y: -1.7053025e-15, z: -2.4867868e-14}
  m_LocalScale: {x: 1, y: 1, z: 1}
  m_Children:
  - {fileID: 4090318113552058}
  m_Father: {fileID: 4686387987661480}
  m_RootOrder: 0
  m_LocalEulerAnglesHint: {x: 0, y: 0, z: -3.17191}
--- !u!4 &4245162544392416
Transform:
  m_ObjectHideFlags: 1
  m_PrefabParentObject: {fileID: 0}
  m_PrefabInternal: {fileID: 100100000}
  m_GameObject: {fileID: 1312120786866442}
  m_LocalRotation: {x: 0, y: -0, z: -0, w: 1}
  m_LocalPosition: {x: -0.44823676, y: -8.5265126e-16, z: 3.2498285e-15}
  m_LocalScale: {x: 1, y: 1, z: 1}
  m_Children: []
  m_Father: {fileID: 4480264386970902}
  m_RootOrder: 0
  m_LocalEulerAnglesHint: {x: 0, y: 0, z: 0}
--- !u!4 &4259453645047148
Transform:
  m_ObjectHideFlags: 1
  m_PrefabParentObject: {fileID: 0}
  m_PrefabInternal: {fileID: 100100000}
  m_GameObject: {fileID: 1825711696061044}
  m_LocalRotation: {x: 0, y: 0, z: -0.42163023, w: 0.9067679}
  m_LocalPosition: {x: 0.8434643, y: 1.563194e-15, z: -3.758771e-14}
  m_LocalScale: {x: 1, y: 1, z: 1}
  m_Children:
  - {fileID: 4831988337044490}
  m_Father: {fileID: 4788157964018282}
  m_RootOrder: 0
  m_LocalEulerAnglesHint: {x: 0, y: 0, z: -105.543915}
--- !u!4 &4271924724650600
Transform:
  m_ObjectHideFlags: 1
  m_PrefabParentObject: {fileID: 0}
  m_PrefabInternal: {fileID: 100100000}
  m_GameObject: {fileID: 1356383009126386}
  m_LocalRotation: {x: 0, y: 0, z: -0.059851002, w: 0.99820733}
  m_LocalPosition: {x: -0.24826796, y: -5.4001247e-15, z: -5.513234e-14}
  m_LocalScale: {x: 1, y: 1, z: 1}
  m_Children:
  - {fileID: 4841607868113860}
  m_Father: {fileID: 4763778896797860}
  m_RootOrder: 0
  m_LocalEulerAnglesHint: {x: 0, y: 0, z: -6.86252}
--- !u!4 &4293608887252136
Transform:
  m_ObjectHideFlags: 1
  m_PrefabParentObject: {fileID: 0}
  m_PrefabInternal: {fileID: 100100000}
  m_GameObject: {fileID: 1307363394754700}
  m_LocalRotation: {x: 0.9851492, y: 0.17170061, z: -0.000000018227292, w: 0.0000000031768204}
  m_LocalPosition: {x: -0.09931245, y: -4.2632563e-16, z: -1.3649525e-13}
  m_LocalScale: {x: 1, y: 1, z: 1}
  m_Children:
  - {fileID: 4393163759147602}
  m_Father: {fileID: 4375802791539368}
  m_RootOrder: 0
  m_LocalEulerAnglesHint: {x: 0.0000007137164, y: -179.99991, z: 160.22694}
--- !u!4 &4375802791539368
Transform:
  m_ObjectHideFlags: 1
  m_PrefabParentObject: {fileID: 0}
  m_PrefabInternal: {fileID: 100100000}
  m_GameObject: {fileID: 1003127999685344}
  m_LocalRotation: {x: -0.000000028931908, y: -0.00000010943074, z: 0.368948, w: 0.92945004}
  m_LocalPosition: {x: -0.10388072, y: 0, z: -1.2789769e-14}
  m_LocalScale: {x: 1, y: 1, z: 1}
  m_Children:
  - {fileID: 4293608887252136}
  m_Father: {fileID: 4859616549813326}
  m_RootOrder: 0
  m_LocalEulerAnglesHint: {x: 0.000001537543, y: -0.000010441578, z: 43.301834}
--- !u!4 &4390829125383942
Transform:
  m_ObjectHideFlags: 1
  m_PrefabParentObject: {fileID: 0}
  m_PrefabInternal: {fileID: 100100000}
  m_GameObject: {fileID: 1757451170657312}
  m_LocalRotation: {x: 0.98348236, y: -0.18100405, z: 9.656917e-15, w: -5.247069e-14}
  m_LocalPosition: {x: -0.24190584, y: 0.25146616, z: -0.507866}
  m_LocalScale: {x: 1, y: 1, z: 1}
  m_Children:
  - {fileID: 4740072202069354}
  m_Father: {fileID: 4854180199584064}
  m_RootOrder: 1
  m_LocalEulerAnglesHint: {x: -6.9709384e-15, y: 180, z: -173.45226}
--- !u!4 &4393163759147602
Transform:
  m_ObjectHideFlags: 1
  m_PrefabParentObject: {fileID: 0}
  m_PrefabInternal: {fileID: 100100000}
  m_GameObject: {fileID: 1601326765684952}
  m_LocalRotation: {x: 0.000000022029164, y: -0.000000026747117, z: -0.10563439, w: 0.99440503}
  m_LocalPosition: {x: -0.08993089, y: 2.842171e-16, z: 1.2285283e-13}
  m_LocalScale: {x: 1, y: 1, z: 1}
  m_Children:
  - {fileID: 4515793751387650}
  m_Father: {fileID: 4293608887252136}
  m_RootOrder: 0
  m_LocalEulerAnglesHint: {x: 0.0000021738806, y: -0.000003306852, z: -11.777372}
--- !u!4 &4400710350842830
Transform:
  m_ObjectHideFlags: 1
  m_PrefabParentObject: {fileID: 0}
  m_PrefabInternal: {fileID: 100100000}
  m_GameObject: {fileID: 1641925631818518}
  m_LocalRotation: {x: 0, y: 0, z: 0.31043234, w: 0.9505955}
  m_LocalPosition: {x: 1.0413578, y: -2.842171e-16, z: -5.542233e-14}
  m_LocalScale: {x: 1, y: 1, z: 1}
  m_Children:
  - {fileID: 4958581673639758}
  m_Father: {fileID: 4680351013481056}
  m_RootOrder: 0
  m_LocalEulerAnglesHint: {x: 0, y: 0, z: 119.95045}
--- !u!4 &4416673913534446
Transform:
  m_ObjectHideFlags: 1
  m_PrefabParentObject: {fileID: 0}
  m_PrefabInternal: {fileID: 100100000}
  m_GameObject: {fileID: 1279825281151876}
  m_LocalRotation: {x: 0.0340668, y: -0.076232105, z: -0.49616623, w: 0.8642032}
  m_LocalPosition: {x: -1.006478, y: 3.126388e-15, z: 6.3948846e-14}
  m_LocalScale: {x: 1, y: 1, z: 1}
  m_Children:
  - {fileID: 4096537806680926}
  m_Father: {fileID: 4045619110252902}
  m_RootOrder: 0
  m_LocalEulerAnglesHint: {x: -2.885872, y: -9.137966, z: -71.32063}
--- !u!4 &4452306393485774
Transform:
  m_ObjectHideFlags: 1
  m_PrefabParentObject: {fileID: 0}
  m_PrefabInternal: {fileID: 100100000}
  m_GameObject: {fileID: 1018455690316812}
  m_LocalRotation: {x: 0, y: 0, z: -0.28527647, w: 0.9584453}
  m_LocalPosition: {x: -0.05020003, y: 0.0367077, z: -3.322098e-14}
  m_LocalScale: {x: 1, y: 1, z: 1}
  m_Children:
  - {fileID: 4115052950132552}
  - {fileID: 4705824208653472}
  m_Father: {fileID: 4841607868113860}
  m_RootOrder: 1
  m_LocalEulerAnglesHint: {x: 6.3022966, y: -1.792963, z: -39.967262}
--- !u!4 &4470289819894758
Transform:
  m_ObjectHideFlags: 1
  m_PrefabParentObject: {fileID: 0}
  m_PrefabInternal: {fileID: 100100000}
  m_GameObject: {fileID: 1158589434931352}
  m_LocalRotation: {x: 0.00000001022188, y: -0.00000002575087, z: 0.36894798, w: 0.92945004}
  m_LocalPosition: {x: 0.10388072, y: 4.2632563e-16, z: -6.3948845e-15}
  m_LocalScale: {x: 1, y: 1, z: 1}
  m_Children:
  - {fileID: 4212661346435938}
  m_Father: {fileID: 4831988337044490}
  m_RootOrder: 0
  m_LocalEulerAnglesHint: {x: 0, y: 2.2737368e-13, z: 43.301495}
--- !u!4 &4480264386970902
Transform:
  m_ObjectHideFlags: 1
  m_PrefabParentObject: {fileID: 0}
  m_PrefabInternal: {fileID: 100100000}
  m_GameObject: {fileID: 1512951442179992}
  m_LocalRotation: {x: 0, y: 0, z: 0.05425308, w: 0.9985272}
  m_LocalPosition: {x: -0.4963898, y: 1.9895197e-15, z: -7.059106e-17}
  m_LocalScale: {x: 1, y: 1, z: 1}
  m_Children:
  - {fileID: 4245162544392416}
  m_Father: {fileID: 4885998518505366}
  m_RootOrder: 0
  m_LocalEulerAnglesHint: {x: 0, y: 0, z: 6.2199984}
--- !u!4 &4515793751387650
Transform:
  m_ObjectHideFlags: 1
  m_PrefabParentObject: {fileID: 0}
  m_PrefabInternal: {fileID: 100100000}
  m_GameObject: {fileID: 1035940129953044}
  m_LocalRotation: {x: 0, y: -0, z: -0, w: 1}
  m_LocalPosition: {x: -0.20902833, y: 0, z: 1.0004442e-13}
  m_LocalScale: {x: 1, y: 1, z: 1}
  m_Children: []
  m_Father: {fileID: 4393163759147602}
  m_RootOrder: 0
  m_LocalEulerAnglesHint: {x: 0, y: 0, z: 0}
--- !u!4 &4545493106163764
Transform:
  m_ObjectHideFlags: 1
  m_PrefabParentObject: {fileID: 0}
  m_PrefabInternal: {fileID: 100100000}
  m_GameObject: {fileID: 1853390838931692}
  m_LocalRotation: {x: 0.18100405, y: 0.98348236, z: -6.680648e-15, w: 3.5960892e-14}
  m_LocalPosition: {x: -0.24190584, y: 0.25146616, z: 0.507866}
  m_LocalScale: {x: 1, y: 1, z: 1}
  m_Children:
  - {fileID: 4788157964018282}
  m_Father: {fileID: 4854180199584064}
  m_RootOrder: 0
  m_LocalEulerAnglesHint: {x: 3.5445368e-15, y: -180, z: 24.071732}
--- !u!4 &4562254685828518
Transform:
  m_ObjectHideFlags: 1
  m_PrefabParentObject: {fileID: 0}
  m_PrefabInternal: {fileID: 100100000}
  m_GameObject: {fileID: 1561212300946378}
  m_LocalRotation: {x: 0.6427779, y: 0.0059208004, z: -0.11856385, w: 0.7567987}
  m_LocalPosition: {x: -0.06863333, y: -8.526512e-15, z: 2.7000624e-15}
  m_LocalScale: {x: 1, y: 1, z: 1}
  m_Children:
  - {fileID: 4608930636340188}
  m_Father: {fileID: 4096537806680926}
  m_RootOrder: 0
  m_LocalEulerAnglesHint: {x: 76.98511, y: -39.567055, z: -49.733463}
--- !u!4 &4563088479758934
Transform:
  m_ObjectHideFlags: 1
  m_PrefabParentObject: {fileID: 0}
  m_PrefabInternal: {fileID: 100100000}
  m_GameObject: {fileID: 1954648809360660}
  m_LocalRotation: {x: 1.7112914e-15, y: 1, z: -0.000000021855694, w: 0.0000000754979}
  m_LocalPosition: {x: -0, y: 0, z: 0}
  m_LocalScale: {x: 100, y: 100, z: 100}
  m_Children: []
  m_Father: {fileID: 4846570793918966}
  m_RootOrder: 1
  m_LocalEulerAnglesHint: {x: 0, y: 0, z: 0}
--- !u!4 &4582419426468638
Transform:
  m_ObjectHideFlags: 1
  m_PrefabParentObject: {fileID: 0}
  m_PrefabInternal: {fileID: 100100000}
  m_GameObject: {fileID: 1278538066244222}
  m_LocalRotation: {x: 0, y: -0, z: -0, w: 1}
  m_LocalPosition: {x: -0.3134629, y: 4.973799e-16, z: -4.7911382e-14}
  m_LocalScale: {x: 1, y: 1, z: 1}
  m_Children: []
  m_Father: {fileID: 4841607868113860}
  m_RootOrder: 0
  m_LocalEulerAnglesHint: {x: 0, y: 0, z: 0}
--- !u!4 &4588172042591486
Transform:
  m_ObjectHideFlags: 1
  m_PrefabParentObject: {fileID: 0}
  m_PrefabInternal: {fileID: 100100000}
  m_GameObject: {fileID: 1470953313077334}
  m_LocalRotation: {x: 0.6427779, y: 0.0059207994, z: -0.118563846, w: 0.7567987}
  m_LocalPosition: {x: 0.06863333, y: 9.947598e-16, z: -3.0553336e-15}
  m_LocalScale: {x: 1, y: 1, z: 1}
  m_Children:
  - {fileID: 4600347211620942}
  m_Father: {fileID: 4012868427444568}
  m_RootOrder: 0
  m_LocalEulerAnglesHint: {x: 76.9849, y: -39.56919, z: -49.734634}
--- !u!4 &4600347211620942
Transform:
  m_ObjectHideFlags: 1
  m_PrefabParentObject: {fileID: 0}
  m_PrefabInternal: {fileID: 100100000}
  m_GameObject: {fileID: 1962345614467826}
  m_LocalRotation: {x: 0.0000000010216153, y: -0.000000011547603, z: 0.0881257, w: 0.99610937}
  m_LocalPosition: {x: 0.15002312, y: -1.1723955e-15, z: 0.0000000025574738}
  m_LocalScale: {x: 1, y: 1, z: 1}
  m_Children:
  - {fileID: 4611986223446172}
  m_Father: {fileID: 4588172042591486}
  m_RootOrder: 0
  m_LocalEulerAnglesHint: {x: -2.013405, y: -7.8608766, z: -19.760109}
--- !u!4 &4608930636340188
Transform:
  m_ObjectHideFlags: 1
  m_PrefabParentObject: {fileID: 0}
  m_PrefabInternal: {fileID: 100100000}
  m_GameObject: {fileID: 1746044418575842}
  m_LocalRotation: {x: 0.0000000010216102, y: -0.000000011547545, z: 0.0881257, w: 0.99610937}
  m_LocalPosition: {x: -0.15002312, y: -1.7763568e-15, z: -0.0000000025574598}
  m_LocalScale: {x: 1, y: 1, z: 1}
  m_Children:
  - {fileID: 4703057861689178}
  m_Father: {fileID: 4562254685828518}
  m_RootOrder: 0
  m_LocalEulerAnglesHint: {x: -0.08544892, y: -0.9254464, z: 23.326042}
--- !u!4 &4611986223446172
Transform:
  m_ObjectHideFlags: 1
  m_PrefabParentObject: {fileID: 0}
  m_PrefabInternal: {fileID: 100100000}
  m_GameObject: {fileID: 1510723328280528}
  m_LocalRotation: {x: 0, y: -0, z: -0, w: 1}
  m_LocalPosition: {x: 0.1285476, y: -5.684342e-16, z: 0.000000002134371}
  m_LocalScale: {x: 1, y: 1, z: 1}
  m_Children: []
  m_Father: {fileID: 4600347211620942}
  m_RootOrder: 0
  m_LocalEulerAnglesHint: {x: 0, y: 0, z: 0}
--- !u!4 &4630499370873766
Transform:
  m_ObjectHideFlags: 1
  m_PrefabParentObject: {fileID: 0}
  m_PrefabInternal: {fileID: 100100000}
  m_GameObject: {fileID: 1522541489646380}
  m_LocalRotation: {x: 0, y: -0, z: -0, w: 1}
  m_LocalPosition: {x: -0.09101531, y: 1.1368684e-15, z: -3.4860542e-14}
  m_LocalScale: {x: 1, y: 1, z: 1}
  m_Children: []
  m_Father: {fileID: 4705824208653472}
  m_RootOrder: 0
  m_LocalEulerAnglesHint: {x: 0, y: 0, z: 0}
--- !u!4 &4660300850881032
Transform:
  m_ObjectHideFlags: 1
  m_PrefabParentObject: {fileID: 0}
  m_PrefabInternal: {fileID: 100100000}
  m_GameObject: {fileID: 1067292359278896}
  m_LocalRotation: {x: 0, y: 0, z: 0.102925956, w: 0.99468905}
  m_LocalPosition: {x: -0.39892337, y: 2.8421708e-15, z: -7.3820493e-14}
  m_LocalScale: {x: 1, y: 1, z: 1}
  m_Children:
  - {fileID: 4071297671360528}
  m_Father: {fileID: 4854180199584064}
  m_RootOrder: 2
  m_LocalEulerAnglesHint: {x: 0, y: 0, z: 11.81537}
--- !u!4 &4680351013481056
Transform:
  m_ObjectHideFlags: 1
  m_PrefabParentObject: {fileID: 0}
  m_PrefabInternal: {fileID: 100100000}
  m_GameObject: {fileID: 1216543827252660}
  m_LocalRotation: {x: 0.6794686, y: 0.7337046, z: 6.2722976e-15, w: -6.682842e-15}
  m_LocalPosition: {x: -0.76371115, y: 0.6525103, z: 0.70790017}
  m_LocalScale: {x: 1, y: 1, z: 1}
  m_Children:
  - {fileID: 4400710350842830}
  m_Father: {fileID: 4116383649212086}
  m_RootOrder: 0
  m_LocalEulerAnglesHint: {x: -3.2205896, y: -172.2815, z: 69.48022}
--- !u!4 &4686387987661480
Transform:
  m_ObjectHideFlags: 1
  m_PrefabParentObject: {fileID: 0}
  m_PrefabInternal: {fileID: 100100000}
  m_GameObject: {fileID: 1494862050038156}
  m_LocalRotation: {x: -0.23823072, y: 0.97120863, z: -5.666412e-15, w: 1.3899314e-15}
  m_LocalPosition: {x: 0.63676995, y: 0.5704693, z: 2.126491e-14}
  m_LocalScale: {x: 1, y: 1, z: 1}
  m_Children:
  - {fileID: 4228376018256386}
  m_Father: {fileID: 4116383649212086}
  m_RootOrder: 3
  m_LocalEulerAnglesHint: {x: 9.467212e-15, y: -180, z: -27.564266}
--- !u!4 &4690042748665676
Transform:
  m_ObjectHideFlags: 1
  m_PrefabParentObject: {fileID: 0}
  m_PrefabInternal: {fileID: 100100000}
  m_GameObject: {fileID: 1806133764042466}
  m_LocalRotation: {x: 0, y: 0, z: -0.17881393, w: 0.9838829}
  m_LocalPosition: {x: -0.41828188, y: 7.389644e-15, z: -2.1217488e-14}
  m_LocalScale: {x: 1, y: 1, z: 1}
  m_Children:
  - {fileID: 4948093811902924}
  m_Father: {fileID: 4066247197231690}
  m_RootOrder: 0
  m_LocalEulerAnglesHint: {x: 0, y: 0, z: -13.140371}
--- !u!4 &4692152026195618
Transform:
  m_ObjectHideFlags: 1
  m_PrefabParentObject: {fileID: 0}
  m_PrefabInternal: {fileID: 100100000}
  m_GameObject: {fileID: 1887797132121458}
  m_LocalRotation: {x: 0, y: 0, z: -0.42163023, w: 0.9067679}
  m_LocalPosition: {x: -0.8434643, y: -1.847411e-15, z: 8.8533625e-14}
  m_LocalScale: {x: 1, y: 1, z: 1}
  m_Children:
  - {fileID: 4859616549813326}
  m_Father: {fileID: 4740072202069354}
  m_RootOrder: 0
  m_LocalEulerAnglesHint: {x: 0, y: 0, z: -125.40646}
--- !u!4 &4703057861689178
Transform:
  m_ObjectHideFlags: 1
  m_PrefabParentObject: {fileID: 0}
  m_PrefabInternal: {fileID: 100100000}
  m_GameObject: {fileID: 1836091535590338}
  m_LocalRotation: {x: 0, y: -0, z: -0, w: 1}
  m_LocalPosition: {x: -0.1285476, y: 1.1368684e-15, z: -0.0000000021343725}
  m_LocalScale: {x: 1, y: 1, z: 1}
  m_Children: []
  m_Father: {fileID: 4608930636340188}
  m_RootOrder: 0
  m_LocalEulerAnglesHint: {x: 0, y: 0, z: 0}
--- !u!4 &4705824208653472
Transform:
  m_ObjectHideFlags: 1
  m_PrefabParentObject: {fileID: 0}
  m_PrefabInternal: {fileID: 100100000}
  m_GameObject: {fileID: 1799571107875480}
  m_LocalRotation: {x: 0, y: 0, z: 0.044829823, w: 0.99899465}
  m_LocalPosition: {x: -0.41733035, y: -0.06594142, z: -1.4245397e-13}
  m_LocalScale: {x: 1, y: 1, z: 1}
  m_Children:
  - {fileID: 4630499370873766}
  m_Father: {fileID: 4452306393485774}
  m_RootOrder: 1
  m_LocalEulerAnglesHint: {x: 0, y: 0, z: 0}
--- !u!4 &4729868811019758
Transform:
  m_ObjectHideFlags: 1
  m_PrefabParentObject: {fileID: 0}
  m_PrefabInternal: {fileID: 100100000}
  m_GameObject: {fileID: 1656167377070512}
  m_LocalRotation: {x: 0, y: -0, z: -0, w: 1}
  m_LocalPosition: {x: 0.20902833, y: -7.81597e-16, z: -1.3855583e-14}
  m_LocalScale: {x: 1, y: 1, z: 1}
  m_Children: []
  m_Father: {fileID: 4058099781835200}
  m_RootOrder: 0
  m_LocalEulerAnglesHint: {x: 0, y: 0, z: 0}
--- !u!4 &4740072202069354
Transform:
  m_ObjectHideFlags: 1
  m_PrefabParentObject: {fileID: 0}
  m_PrefabInternal: {fileID: 100100000}
  m_GameObject: {fileID: 1383856184412050}
  m_LocalRotation: {x: 0, y: 0, z: 0.43178692, w: 0.90197563}
  m_LocalPosition: {x: -0.38137946, y: 5.684342e-16, z: 9.8197004e-14}
  m_LocalScale: {x: 1, y: 1, z: 1}
  m_Children:
  - {fileID: 4692152026195618}
  m_Father: {fileID: 4390829125383942}
  m_RootOrder: 0
  m_LocalEulerAnglesHint: {x: -0.0000011684507, y: -0.0000014512898, z: 86.39057}
--- !u!4 &4748140518798078
Transform:
  m_ObjectHideFlags: 1
  m_PrefabParentObject: {fileID: 0}
  m_PrefabInternal: {fileID: 100100000}
  m_GameObject: {fileID: 1937626050371192}
  m_LocalRotation: {x: 0.7337046, y: -0.6794686, z: 1.0753541e-14, w: -1.1611902e-14}
  m_LocalPosition: {x: -0.76371115, y: 0.6525103, z: -0.70790017}
  m_LocalScale: {x: 1, y: 1, z: 1}
  m_Children:
  - {fileID: 4045619110252902}
  m_Father: {fileID: 4116383649212086}
  m_RootOrder: 1
  m_LocalEulerAnglesHint: {x: -0.19912806, y: 179.08614, z: -122.392586}
--- !u!4 &4755600193794302
Transform:
  m_ObjectHideFlags: 1
  m_PrefabParentObject: {fileID: 0}
  m_PrefabInternal: {fileID: 100100000}
  m_GameObject: {fileID: 1916086154799764}
  m_LocalRotation: {x: 0, y: -0, z: -0, w: 1}
  m_LocalPosition: {x: -0, y: 0, z: 0}
  m_LocalScale: {x: 1, y: 1, z: 1}
  m_Children:
  - {fileID: 4116383649212086}
  m_Father: {fileID: 4859328826221274}
  m_RootOrder: 0
  m_LocalEulerAnglesHint: {x: 0, y: 0, z: 0}
--- !u!4 &4763778896797860
Transform:
  m_ObjectHideFlags: 1
  m_PrefabParentObject: {fileID: 0}
  m_PrefabInternal: {fileID: 100100000}
  m_GameObject: {fileID: 1944684867171222}
  m_LocalRotation: {x: 0, y: 0, z: 0.014028958, w: 0.9999016}
  m_LocalPosition: {x: -0.28969675, y: 7.958079e-15, z: -5.973007e-14}
  m_LocalScale: {x: 1, y: 1, z: 1}
  m_Children:
  - {fileID: 4271924724650600}
  m_Father: {fileID: 4863283635151804}
  m_RootOrder: 0
  m_LocalEulerAnglesHint: {x: 0, y: 0, z: 1.6076529}
--- !u!4 &4788157964018282
Transform:
  m_ObjectHideFlags: 1
  m_PrefabParentObject: {fileID: 0}
  m_PrefabInternal: {fileID: 100100000}
  m_GameObject: {fileID: 1776912906434764}
  m_LocalRotation: {x: 0, y: 0, z: 0.43178692, w: 0.90197563}
  m_LocalPosition: {x: 0.38137946, y: 8.5265126e-16, z: 5.8406615e-14}
  m_LocalScale: {x: 1, y: 1, z: 1}
  m_Children:
  - {fileID: 4259453645047148}
  m_Father: {fileID: 4545493106163764}
  m_RootOrder: 0
  m_LocalEulerAnglesHint: {x: 0, y: 0, z: 108.856346}
--- !u!4 &4831988337044490
Transform:
  m_ObjectHideFlags: 1
  m_PrefabParentObject: {fileID: 0}
  m_PrefabInternal: {fileID: 100100000}
  m_GameObject: {fileID: 1671280689378920}
  m_LocalRotation: {x: 0.98852223, y: 0.1510757, z: 0.00000002478932, w: -0.000000043107654}
  m_LocalPosition: {x: 0.6209377, y: -7.247536e-15, z: 1.0402345e-13}
  m_LocalScale: {x: 1, y: 1, z: 1}
  m_Children:
  - {fileID: 4470289819894758}
  m_Father: {fileID: 4259453645047148}
  m_RootOrder: 0
  m_LocalEulerAnglesHint: {x: -0.0000026839073, y: 179.99998, z: 130.91777}
--- !u!4 &4841607868113860
Transform:
  m_ObjectHideFlags: 1
  m_PrefabParentObject: {fileID: 0}
  m_PrefabInternal: {fileID: 100100000}
  m_GameObject: {fileID: 1271543476383678}
  m_LocalRotation: {x: 0, y: 0, z: 0.24083717, w: 0.97056556}
  m_LocalPosition: {x: -0.18159053, y: 5.82645e-14, z: -4.9543475e-14}
  m_LocalScale: {x: 1, y: 1, z: 1}
  m_Children:
  - {fileID: 4582419426468638}
  - {fileID: 4452306393485774}
  m_Father: {fileID: 4271924724650600}
  m_RootOrder: 0
  m_LocalEulerAnglesHint: {x: 0, y: 0, z: 27.871908}
--- !u!4 &4846570793918966
Transform:
  m_ObjectHideFlags: 1
  m_PrefabParentObject: {fileID: 0}
  m_PrefabInternal: {fileID: 100100000}
  m_GameObject: {fileID: 1080700290406170}
  m_LocalRotation: {x: -0, y: -0, z: -0, w: 1}
  m_LocalPosition: {x: 6, y: 0, z: 0}
  m_LocalScale: {x: 1, y: 1, z: 1}
  m_Children:
  - {fileID: 4054597831851606}
  - {fileID: 4563088479758934}
  m_Father: {fileID: 0}
  m_RootOrder: 0
  m_LocalEulerAnglesHint: {x: 0, y: 0, z: 0}
--- !u!4 &4854180199584064
Transform:
  m_ObjectHideFlags: 1
  m_PrefabParentObject: {fileID: 0}
  m_PrefabInternal: {fileID: 100100000}
  m_GameObject: {fileID: 1685137557464142}
  m_LocalRotation: {x: 0, y: 0, z: -0.20458393, w: 0.97884905}
  m_LocalPosition: {x: -0.4519174, y: -0.00000001917038, z: 7.8269036e-14}
  m_LocalScale: {x: 1, y: 1, z: 1}
  m_Children:
  - {fileID: 4545493106163764}
  - {fileID: 4390829125383942}
  - {fileID: 4660300850881032}
  m_Father: {fileID: 4211218934460032}
  m_RootOrder: 0
  m_LocalEulerAnglesHint: {x: -3.6117087e-15, y: 9.242537e-15, z: -23.655895}
--- !u!4 &4859328826221274
Transform:
  m_ObjectHideFlags: 1
  m_PrefabParentObject: {fileID: 0}
  m_PrefabInternal: {fileID: 100100000}
  m_GameObject: {fileID: 1932085954664890}
  m_LocalRotation: {x: 0, y: -0, z: -0, w: 1}
  m_LocalPosition: {x: -0, y: 0, z: 0}
  m_LocalScale: {x: 1, y: 1, z: 1}
  m_Children:
  - {fileID: 4755600193794302}
  m_Father: {fileID: 4054597831851606}
  m_RootOrder: 0
  m_LocalEulerAnglesHint: {x: 0, y: 0, z: 0}
--- !u!4 &4859616549813326
Transform:
  m_ObjectHideFlags: 1
  m_PrefabParentObject: {fileID: 0}
  m_PrefabInternal: {fileID: 100100000}
  m_GameObject: {fileID: 1452490595996032}
  m_LocalRotation: {x: 0.98852223, y: 0.1510757, z: 0.000000067702786, w: -0.000000046187264}
  m_LocalPosition: {x: -0.6209377, y: 5.4001247e-15, z: 1.421796e-13}
  m_LocalScale: {x: 1, y: 1, z: 1}
  m_Children:
  - {fileID: 4375802791539368}
  m_Father: {fileID: 4692152026195618}
  m_RootOrder: 0
  m_LocalEulerAnglesHint: {x: -0.000004488519, y: 180.00006, z: 118.99487}
--- !u!4 &4863283635151804
Transform:
  m_ObjectHideFlags: 1
  m_PrefabParentObject: {fileID: 0}
  m_PrefabInternal: {fileID: 100100000}
  m_GameObject: {fileID: 1426451340014104}
  m_LocalRotation: {x: 0, y: 0, z: 0.004319341, w: 0.9999907}
  m_LocalPosition: {x: -0.28939563, y: -2.842171e-16, z: -5.4078022e-14}
  m_LocalScale: {x: 1, y: 1, z: 1}
  m_Children:
  - {fileID: 4763778896797860}
  m_Father: {fileID: 4071297671360528}
  m_RootOrder: 0
  m_LocalEulerAnglesHint: {x: 0, y: 0, z: 0.49496153}
--- !u!4 &4885998518505366
Transform:
  m_ObjectHideFlags: 1
  m_PrefabParentObject: {fileID: 0}
  m_PrefabInternal: {fileID: 100100000}
  m_GameObject: {fileID: 1449101928703012}
  m_LocalRotation: {x: 0, y: 0, z: 0.115854844, w: 0.99326617}
  m_LocalPosition: {x: -0.5995051, y: -2.2737367e-15, z: -6.158863e-15}
  m_LocalScale: {x: 1, y: 1, z: 1}
  m_Children:
  - {fileID: 4480264386970902}
  m_Father: {fileID: 4218800982955572}
  m_RootOrder: 0
  m_LocalEulerAnglesHint: {x: 0, y: 0, z: 13.305866}
--- !u!4 &4948093811902924
Transform:
  m_ObjectHideFlags: 1
  m_PrefabParentObject: {fileID: 0}
  m_PrefabInternal: {fileID: 100100000}
  m_GameObject: {fileID: 1255593635883846}
  m_LocalRotation: {x: 0, y: -0, z: -0, w: 1}
  m_LocalPosition: {x: -0.4519173, y: -1.7053025e-15, z: -4.2973824e-14}
  m_LocalScale: {x: 1, y: 1, z: 1}
  m_Children:
  - {fileID: 4211218934460032}
  m_Father: {fileID: 4690042748665676}
  m_RootOrder: 0
  m_LocalEulerAnglesHint: {x: 0, y: 0, z: 3.0652368}
--- !u!4 &4958581673639758
Transform:
  m_ObjectHideFlags: 1
  m_PrefabParentObject: {fileID: 0}
  m_PrefabInternal: {fileID: 100100000}
  m_GameObject: {fileID: 1565271118697778}
  m_LocalRotation: {x: 0.0340668, y: -0.076232105, z: -0.49616623, w: 0.8642032}
  m_LocalPosition: {x: 1.006478, y: -1.7053025e-15, z: -3.794298e-14}
  m_LocalScale: {x: 1, y: 1, z: 1}
  m_Children:
  - {fileID: 4012868427444568}
  m_Father: {fileID: 4400710350842830}
  m_RootOrder: 0
  m_LocalEulerAnglesHint: {x: -7.950536, y: -5.3606915, z: -109.78734}
--- !u!95 &95451313775952974
Animator:
  serializedVersion: 3
  m_ObjectHideFlags: 1
  m_PrefabParentObject: {fileID: 0}
  m_PrefabInternal: {fileID: 100100000}
  m_GameObject: {fileID: 1080700290406170}
  m_Enabled: 1
  m_Avatar: {fileID: 9000000, guid: 35dcd31d556dd3e4f851d2289eb120eb, type: 3}
  m_Controller: {fileID: 9100000, guid: f68db0b2230d9474280bc69a68c14879, type: 2}
  m_CullingMode: 1
  m_UpdateMode: 0
  m_ApplyRootMotion: 0
  m_LinearVelocityBlending: 0
  m_WarningMessage: 
  m_HasTransformHierarchy: 1
  m_AllowConstantClipSamplingOptimization: 1
--- !u!114 &114165787054051010
MonoBehaviour:
  m_ObjectHideFlags: 1
  m_PrefabParentObject: {fileID: 0}
  m_PrefabInternal: {fileID: 100100000}
  m_GameObject: {fileID: 1080700290406170}
  m_Enabled: 1
  m_EditorHideFlags: 0
  m_Script: {fileID: 11500000, guid: 01897ae0afb46794d88a3dc2d9386348, type: 3}
  m_Name: 
  m_EditorClassIdentifier: 
  idleStates:
  - stateName: Eat
    animationBool: isEating
    minStateTime: 10
    maxStateTime: 0
    stateWeight: 1
  movementStates:
  - stateName: Walk
    animationBool: isWalking
    maxStateTime: 20
    moveSpeed: 1
    turnSpeed: 120
  - stateName: Run
    animationBool: isRunning
    maxStateTime: 13
    moveSpeed: 4
    turnSpeed: 120
  attackingStates:
  - stateName: Attack
    animationBool: isAttacking
  deathStates:
  - stateName: Death
    animationBool: isDead
  species: 'Triceratops '
  ScriptableAnimalStats: {fileID: 11400000, guid: 53d0df2171996224c91bf992d9acadbf,
    type: 2}
  wanderZone: 10
  awareness: 20
  scent: 0
  constainedToWanderZone: 0
  nonAgressiveTowards: []
  matchSurfaceRotation: 0
  surfaceRotationSpeed: 2
  logChanges: 0
  showGizmos: 1
  drawWanderRange: 1
  drawScentRange: 1
  drawAwarenessRange: 1
--- !u!137 &137321621951196274
SkinnedMeshRenderer:
  m_ObjectHideFlags: 1
  m_PrefabParentObject: {fileID: 0}
  m_PrefabInternal: {fileID: 100100000}
  m_GameObject: {fileID: 1954648809360660}
  m_Enabled: 1
  m_CastShadows: 1
  m_ReceiveShadows: 1
  m_MotionVectors: 1
  m_LightProbeUsage: 1
  m_ReflectionProbeUsage: 1
  m_Materials:
  - {fileID: 2100000, guid: f9580f4bec4aa4886a4e87274a9460a3, type: 2}
  m_StaticBatchInfo:
    firstSubMesh: 0
    subMeshCount: 0
  m_StaticBatchRoot: {fileID: 0}
  m_ProbeAnchor: {fileID: 0}
  m_LightProbeVolumeOverride: {fileID: 0}
  m_ScaleInLightmap: 1
  m_PreserveUVs: 0
  m_IgnoreNormalsForChartDetection: 0
  m_ImportantGI: 0
  m_SelectedEditorRenderState: 3
  m_MinimumChartSize: 4
  m_AutoUVMaxDistance: 0.5
  m_AutoUVMaxAngle: 89
  m_LightmapParameters: {fileID: 0}
  m_SortingLayerID: 0
  m_SortingLayer: 0
  m_SortingOrder: 0
  serializedVersion: 2
  m_Quality: 0
  m_UpdateWhenOffscreen: 0
  m_SkinnedMotionVectors: 1
  m_Mesh: {fileID: 4300000, guid: 35dcd31d556dd3e4f851d2289eb120eb, type: 3}
  m_Bones:
  - {fileID: 4400710350842830}
  - {fileID: 4058099781835200}
  - {fileID: 4212661346435938}
  - {fileID: 4958581673639758}
  - {fileID: 4680351013481056}
  - {fileID: 4470289819894758}
  - {fileID: 4831988337044490}
  - {fileID: 4259453645047148}
  - {fileID: 4788157964018282}
  - {fileID: 4545493106163764}
  - {fileID: 4841607868113860}
  - {fileID: 4740072202069354}
  - {fileID: 4293608887252136}
  - {fileID: 4393163759147602}
  - {fileID: 4375802791539368}
  - {fileID: 4390829125383942}
  - {fileID: 4859616549813326}
  - {fileID: 4692152026195618}
  - {fileID: 4854180199584064}
  - {fileID: 4948093811902924}
  - {fileID: 4012263342462860}
  - {fileID: 4271924724650600}
  - {fileID: 4763778896797860}
  - {fileID: 4690042748665676}
  - {fileID: 4071297671360528}
  - {fileID: 4066247197231690}
  - {fileID: 4863283635151804}
  - {fileID: 4116383649212086}
  - {fileID: 4660300850881032}
  - {fileID: 4211218934460032}
  - {fileID: 4012868427444568}
  - {fileID: 4600347211620942}
  - {fileID: 4588172042591486}
  - {fileID: 4686387987661480}
  - {fileID: 4228376018256386}
  - {fileID: 4045619110252902}
  - {fileID: 4608930636340188}
  - {fileID: 4562254685828518}
  - {fileID: 4096537806680926}
  - {fileID: 4416673913534446}
  - {fileID: 4748140518798078}
  - {fileID: 4480264386970902}
  - {fileID: 4885998518505366}
  - {fileID: 4218800982955572}
  - {fileID: 4090318113552058}
  - {fileID: 4452306393485774}
  - {fileID: 4115052950132552}
  - {fileID: 4705824208653472}
  - {fileID: 4630499370873766}
  m_BlendShapeWeights: []
  m_RootBone: {fileID: 4116383649212086}
  m_AABB:
    m_Center: {x: -0.24538732, y: 0.74972856, z: -0.00000017881393}
    m_Extent: {x: 4.5686064, y: 2.2947445, z: 1.1263402}
  m_DirtyAABB: 0
--- !u!143 &143500645344935788
CharacterController:
  m_ObjectHideFlags: 1
  m_PrefabParentObject: {fileID: 0}
  m_PrefabInternal: {fileID: 100100000}
  m_GameObject: {fileID: 1080700290406170}
  m_Material: {fileID: 0}
  m_IsTrigger: 0
  m_Enabled: 1
  serializedVersion: 2
  m_Height: 2
  m_Radius: 0.5
  m_SlopeLimit: 45
  m_StepOffset: 0.3
  m_SkinWidth: 0.08
  m_MinMoveDistance: 0.001
  m_Center: {x: 0, y: 1, z: 0}
--- !u!195 &195101049180616944
NavMeshAgent:
  m_ObjectHideFlags: 1
  m_PrefabParentObject: {fileID: 0}
  m_PrefabInternal: {fileID: 100100000}
  m_GameObject: {fileID: 1080700290406170}
  m_Enabled: 1
  m_AgentTypeID: 0
  m_Radius: 0.8
  m_Speed: 3.5
  m_Acceleration: 8
  avoidancePriority: 50
  m_AngularSpeed: 120
  m_StoppingDistance: 0
  m_AutoTraverseOffMeshLink: 1
  m_AutoBraking: 1
  m_AutoRepath: 1
  m_Height: 2
  m_BaseOffset: 0
  m_WalkableMask: 4294967295
  m_ObstacleAvoidanceType: 4
